<?xml version="1.0" encoding="utf-8"?>
<!-- Generator: Adobe Illustrator 23.0.0, SVG Export Plug-In . SVG Version: 6.00 Build 0)  -->
<svg version="1.1" id="Capa_1" xmlns="http://www.w3.org/2000/svg" xmlns:xlink="http://www.w3.org/1999/xlink" x="0px" y="0px"
	 viewBox="0 0 292.4 292.4" style="enable-background:new 0 0 292.4 292.4;" xml:space="preserve">
<style type="text/css">
	.st0{fill:#CCCCCC;}
</style>
<g>
	<g>
		<path class="st0" d="M287.9,86.4c-3.6-3.6-7.9-5.4-12.8-5.4H19.3c-5,0-9.2,1.8-12.9,5.4C2.8,90,1,94.3,1,99.2
			c0,4.9,1.8,9.2,5.4,12.8L134.3,240c3.6,3.6,7.9,5.4,12.9,5.4s9.2-1.8,12.8-5.4l127.9-127.9c3.6-3.6,5.4-7.9,5.4-12.8
			C293.4,94.3,291.5,90,287.9,86.4z"/>
	</g>
</g>
</svg>
